5 Datenaufbereitung mit `dplyr` | Einführung in R
…
# Analog hierzu kann genau so auch nach bestimmten Faktorstufen gefiltert werden:

filter(starwars, sex == "male")

## # A tibble: 23 × 11
##    name   height  mass hair_color skin_color eye_color   Age
##    <chr>   <int> <dbl> <fct>      <fct>      <fct>     <dbl>
##  1 Luke …    172    77 blond      fair       blue       19  
##  2 Darth…    202   136 none       white      yellow     41.9
##  3 Owen …    178   120 brown, gr… light      blue       52  
##  4 Biggs…    183    84 black      light      brown      24  
##  5 Obi-W…    182    77 auburn, w… fair       blue-gray  57  
##  6 Anaki…    188    84 blond      fair       blue       41.9
##  7 Chewb…    228   112 brown      unknown    blue      200  
##  8 Han S…    180    80 brown      fair       brown      29  
##  9 Wedge…    170    77 brown      fair       hazel      21  
## 10 Palpa…    170    75 grey       pale       yellow     82  
## # … with 13 more rows, and 4 more variables: sex <fct>,
## #   gender <fct>, homeworld <chr>, species <chr>
…
Die nachfolgenden Argumente beschreiben, was mit dem Dataframe geschehen soll:

group_by(species, homeworld) und summarise(mean_Age=mean(Age))

Das Ergebnis ist ein neuer Dataframe, der nur noch die Gruppenvariablen Homeworld und Species, sowie die neu berechnete Variable mean_Ages enthält:

# Dazu benutzen wir den Piping Operator %>%, um die Befehle zu verketten:

starwars %>% 
  group_by(species, homeworld) %>% 
  summarise(mean_Age=mean(Age))

## `summarise()` has grouped output by 'species'. You can override using the `.groups` argument.

## # A tibble: 21 × 3
## # Groups:   species [11]
##    species homeworld    mean_Age
##    <chr>   <chr>           <dbl>
##  1 Cerean  Cerea            92  
##  2 Ewok    Endor             8  
##  3 Gungan  Naboo            52  
##  4 Human   Alderaan         19  
##  5 Human   Bespin           37  
##  6 Human   Concord Dawn     66  
##  7 Human   Corellia         25  
##  8 Human   Haruun Kal       72  
##  9 Human   Kamino           31.5
## 10 Human   Naboo            64  
## # … with 11 more rows
…
Der letzte wichtige Befehl in dplyr ist mutate() bzw. across(). Mit mutate() bzw. across() ist es möglich eine Variable bzw. mehrere Variablen umzuformen, oder neu zu berechnen. Dies wird hier anhand einer z-Tranformation erläutert. Dies ermöglicht der Befehl scale(), der standardmäßig in R vorhanden ist.

5.7 Beispiel

starwars %>% 
  select(height,mass) %>% 
  mutate(z_height = scale(height),
         z_mass = scale(mass)) 

## # A tibble: 29 × 4
##    height  mass z_height[,1] z_mass[,1]
##     <int> <dbl>        <dbl>      <dbl>
##  1    172    77     -0.265      -0.0335
##  2    202   136      1.07        2.52  
##  3    150    49     -1.24       -1.25  
##  4    178   120      0.00153     1.83  
##  5    165    75     -0.576      -0.120 
##  6    183    84      0.224       0.270 
##  7    182    77      0.179      -0.0335
##  8    188    84      0.446       0.270 
##  9    228   112      2.22        1.48  
## 10    180    80      0.0904      0.0965
## # … with 19 more rows

 starwars %>% select(height,mass) %>% 
  mutate(across(c(height,mass), list(z=scale)))

## # A tibble: 29 × 4
##    height  mass height_z[,1] mass_z[,1]
##     <int> <dbl>        <dbl>      <dbl>
##  1    172    77     -0.265      -0.0335
##  2    202   136      1.07        2.52  
##  3    150    49     -1.24       -1.25  
##  4    178   120      0.00153     1.83  
##  5    165    75     -0.576      -0.120 
##  6    183    84      0.224       0.270 
##  7    182    77      0.179      -0.0335
##  8    188    84      0.446       0.270 
##  9    228   112      2.22        1.48  
## 10    180    80      0.0904      0.0965
## # … with 19 more rows
…
mutate(across(c(height,mass), list(z=scale)))

Diese Schreibweise hat den Vorteil das

In der list() mehrere Befehle übergeben werden können

Die Originalspalten beibehalten werden

Den neuen Spalten direkt einen Suffix zugewiesen werden kann.

Dieser wird automatisch als “_suffix” an die neue Variable angehängt.

starwars %>% mutate(across(c(height,mass), list(z=scale)))

## # A tibble: 29 × 13
##    name   height  mass hair_color skin_color eye_color   Age
##    <chr>   <int> <dbl> <fct>      <fct>      <fct>     <dbl>
##  1 Luke …    172    77 blond      fair       blue       19  
##  2 Darth…    202   136 none       white      yellow     41.9
##  3 Leia …    150    49 brown      light      brown      19  
##  4 Owen …    178   120 brown, gr… light      blue       52  
##  5 Beru …    165    75 brown      light      blue       47  
##  6 Biggs…    183    84 black      light      brown      24  
##  7 Obi-W…    182    77 auburn, w… fair       blue-gray  57  
##  8 Anaki…    188    84 blond      fair       blue       41.9
##  9 Chewb…    228   112 brown      unknown    blue      200  
## 10 Han S…    180    80 brown      fair       brown      29  
## # … with 19 more rows, and 6 more variables: sex <fct>,
## #   gender <fct>, homeworld <chr>, species <chr>,
## #   height_z <dbl[,1]>, mass_z <dbl[,1]>
