3 Datenstruktur | R Kurs Unterlagen
…
# Wir filtern hier alle heraus, die größer sind als 190 und mehr als 90 Kilo wiegen

Wenn man mit Strings arbeitet sucht man häufig nach bestimmen pattern in den Strings, wie hier bei den Namen. Wollen wir nun alle Skywalkers filtern, müssen wir die grepl() Funktion aus R nutzen. Diese prüft, ob eine Zeichenfolge vorhanden ist oder nicht und gibt dann entsprechend TRUE oder FALSE aus, also perfekt für filter() . Bei Strings die nur aus einem Wort bestehen, funktioniert aber auch filter(starwars, species=="human").

Beispiel:

filter(starwars, species == "Human")

## # A tibble: 35 x 11
##    name        height  mass hair_color  skin_color eye_color   Age sex   gender 
##    <chr>        <int> <dbl> <fct>       <fct>      <fct>     <dbl> <fct> <fct>  
##  1 Luke Skywa~    172    77 blond       fair       blue       19   male  mascul~
##  2 Darth Vader    202   136 none        white      yellow     41.9 male  mascul~
##  3 Leia Organa    150    49 brown       light      brown      19   fema~ femini~
##  4 Owen Lars      178   120 brown, grey light      blue       52   male  mascul~
##  5 Beru White~    165    75 brown       light      blue       47   fema~ femini~
##  6 Biggs Dark~    183    84 black       light      brown      24   male  mascul~
##  7 Obi-Wan Ke~    182    77 auburn, wh~ fair       blue-gray  57   male  mascul~
##  8 Anakin Sky~    188    84 blond       fair       blue       41.9 male  mascul~
##  9 Wilhuff Ta~    180    NA auburn, gr~ fair       blue       64   male  mascul~
## 10 Han Solo       180    80 brown       fair       brown      29   male  mascul~
## # ... with 25 more rows, and 2 more variables: homeworld <chr>, species <chr>
…
# Es wird im Datensatz starwars nach dem String "Skywalker" in der Spalte name gesucht. 
# Das Ergebnis sieht dann so aus: 

Wichtig ist natürlich für uns auch der Umgang mit Faktoren. Glücklicherweise ist das viel einfacher als mit Strings:

# Wenn wir nun nach einem bestimmten Faktor-Level Filtern wollen geht das genauso wie mit numerischen Werten:

filter(starwars, sex == "male")

## # A tibble: 60 x 11
##    name        height  mass hair_color  skin_color eye_color   Age sex   gender 
##    <chr>        <int> <dbl> <fct>       <fct>      <fct>     <dbl> <fct> <fct>  
##  1 Luke Skywa~    172    77 blond       fair       blue       19   male  mascul~
##  2 Darth Vader    202   136 none        white      yellow     41.9 male  mascul~
##  3 Owen Lars      178   120 brown, grey light      blue       52   male  mascul~
##  4 Biggs Dark~    183    84 black       light      brown      24   male  mascul~
##  5 Obi-Wan Ke~    182    77 auburn, wh~ fair       blue-gray  57   male  mascul~
##  6 Anakin Sky~    188    84 blond       fair       blue       41.9 male  mascul~
##  7 Wilhuff Ta~    180    NA auburn, gr~ fair       blue       64   male  mascul~
##  8 Chewbacca      228   112 brown       unknown    blue      200   male  mascul~
##  9 Han Solo       180    80 brown       fair       brown      29   male  mascul~
## 10 Greedo         173    74 <NA>        green      black      44   male  mascul~
## # ... with 50 more rows, and 2 more variables: homeworld <chr>, species <chr>
…
3.5 Beispiel

Stellt euch vor, ihr wollte gerne den Mittelwert des Alters der Helden aus dem Starwars Datensatz berechnen, und das für unterschiedliche Heimatwelten und Spezies:

# Dazu benutzen wir den Piping Operator %>%, um die Befehle zu verketten:

starwars %>% 
  group_by(species, homeworld) %>% 
  summarise(mean_Age=mean(Age))

## `summarise()` has grouped output by 'species'. You can override using the `.groups` argument.

## # A tibble: 58 x 3
## # Groups:   species [38]
##    species  homeworld   mean_Age
##    <chr>    <chr>          <dbl>
##  1 Aleena   Aleen Minor       NA
##  2 Besalisk Ojom              NA
##  3 Cerean   Cerea             92
##  4 Chagrian Champala          NA
##  5 Clawdite Zolan             NA
##  6 Droid    Naboo             33
##  7 Droid    Tatooine          NA
##  8 Droid    <NA>              NA
##  9 Dug      Malastare         NA
## 10 Ewok     Endor              8
## # ... with 48 more rows
…
Da wir nun den Piping Operator benutzen der vom Dataframe starwars ausgeht, müssen wir auch nicht mehr bei jedem Befehl den Datensatz angeben, es reicht dies am Anfang der “Pipeline” zu tun.

Problem: Wir haben noch viele fehlende Beobachtungen. Diese müssen wir zunächst entfehrnen. Auch das können wir nun innerhalb der “Pipeline” tun. Dazu bietet R den Befehl drop_na() an. Dieser entfehrnt alle fehlenden Werte eines Datensatzes.

Wir müssen diesen Befehl nun einfach an eine Stelle in der Pipe einfügen, an der es Sinn macht, die Fehlenden Werte zu entfehrnen:

# Wo könnte das hier sein ? 

starwars %>% drop_na() %>%
  group_by(species, homeworld) %>% 
  summarise(mean_Age=mean(Age))

## `summarise()` has grouped output by 'species'. You can override using the `.groups` argument.

## # A tibble: 21 x 3
## # Groups:   species [11]
##    species homeworld    mean_Age
##    <chr>   <chr>           <dbl>
##  1 Cerean  Cerea            92  
##  2 Ewok    Endor             8  
##  3 Gungan  Naboo            52  
##  4 Human   Alderaan         19  
##  5 Human   Bespin           37  
##  6 Human   Concord Dawn     66  
##  7 Human   Corellia         25  
##  8 Human   Haruun Kal       72  
##  9 Human   Kamino           31.5
## 10 Human   Naboo            64  
## # ... with 11 more rows
…
3.7 Dplyr : Neue Variablen mit mutate() berechnen

Der letzte wichtige Befehl in dplyr ist mutate() bzw. across(). Letztes mal haben wir in dem Beispiel der Matrix zwei Variablen miteinander kombiniert und daraus einen neue berechnet (Größe*5). Mit mutate() können wir eine Variable und mit across() gleich mehrere Variablen umformen, oder neu berechnen. Hier möchte ich es am Beispiel einer z-Tranformation erläutern. Diese werden wir mit dem Befehl scale() tun, der standardmäßig in R vorhanden ist.

3.8 Beispiel

starwars %>% 
  select(height,mass) %>% 
  mutate(z_height = scale(height),
         z_mass = scale(mass)) %>% 
  drop_na()

## # A tibble: 59 x 4
##    height  mass z_height[,1] z_mass[,1]
##     <int> <dbl>        <dbl>      <dbl>
##  1    172    77      -0.0678    -0.120 
##  2    167    75      -0.212     -0.132 
##  3     96    32      -2.25      -0.385 
##  4    202   136       0.795      0.228 
##  5    150    49      -0.701     -0.285 
##  6    178   120       0.105      0.134 
##  7    165    75      -0.269     -0.132 
##  8     97    32      -2.22      -0.385 
##  9    183    84       0.249     -0.0786
## 10    182    77       0.220     -0.120 
## # ... with 49 more rows

 starwars %>% select(height,mass) %>% 
  mutate(across(c(height,mass), list(z=scale))) %>%
  drop_na()

## # A tibble: 59 x 4
##    height  mass height_z[,1] mass_z[,1]
##     <int> <dbl>        <dbl>      <dbl>
##  1    172    77      -0.0678    -0.120 
##  2    167    75      -0.212     -0.132 
##  3     96    32      -2.25      -0.385 
##  4    202   136       0.795      0.228 
##  5    150    49      -0.701     -0.285 
##  6    178   120       0.105      0.134 
##  7    165    75      -0.269     -0.132 
##  8     97    32      -2.22      -0.385 
##  9    183    84       0.249     -0.0786
## 10    182    77       0.220     -0.120 
## # ... with 49 more rows
…
